{
    "status": 200,
    "success": true,
    "data": [
        {
            "code": "23-005",
            "title_en": "The FATF Recommendations",
            "title_km": "The FATF Recommendations",
            "short_description_km": null,
            "short_description_en": null,
            "file_en": "http://165.22.247.36:8080/storage/46/1dxRNeE1RXqVxYDP8kteXvuPthutVW-metadUdReVl5VE9jUGZQbEIwajgyRzhKcnY4d0E0S3NlLW1ldGFSa0ZVUmlCU1pXTnZiVzFsYm1SaGRHbHZibk1nTWpBeE1pNXdaR1l1WTI5eVpXUnZkMjVzYjJGa0xtbHViR2x1WlM1d1pHWT0tLnBkZg==-.pdf",
            "file_km": "http://165.22.247.36:8080/storage/45/xWa6hZkojiBaKYZR40UQhXOl6h4HdN-metadUdReVl5VE9jUGZQbEIwajgyRzhKcnY4d0E0S3NlLW1ldGFSa0ZVUmlCU1pXTnZiVzFsYm1SaGRHbHZibk1nTWpBeE1pNXdaR1l1WTI5eVpXUnZkMjVzYjJGa0xtbHViR2x1WlM1d1pHWT0tLnBkZg==-.pdf",
            "thumbnail_km": "http://165.22.247.36:8080/storage/43/conversions/LQjhgnczLyime7QPPniNMd5LszbwpH-metaU2NyZWVuc2hvdCAyMDIzLTA4LTMwIGF0IDExLjU0LjI2IEFNLnBuZw==--thumb_km.jpg",
            "thumbnail_en": "http://165.22.247.36:8080/storage/44/conversions/H9y0DRggiP2Yy7a37D3MFWA0mVvdtk-metaU2NyZWVuc2hvdCAyMDIzLTA4LTMwIGF0IDExLjU0LjI2IEFNLnBuZw==--thumb_en.jpg",
            "published_date": "05-10-2023",
            "posted_date": "05-10-2023",
            "category": {
                "code": "007",
                "title_en": "FATF Standards",
                "title_km": "FATF Standards",
                "short_description_km": null,
                "short_description_en": null
            },
            "meta_keyword": null,
            "meta_description": null
        },
        {
            "code": "23-006",
            "title_en": "FATF Methodology",
            "title_km": "FATF Methodology",
            "short_description_km": null,
            "short_description_en": null,
            "file_en": "http://165.22.247.36:8080/storage/50/NqugLLAljkd2DSvdBUraWBkLRy46u2-metaemhMeDFJQjdkYmd1eHR2UmFZemI5NVFDclFmTnRQLW1ldGFSa0ZVUmlCTlpYUm9iMlJ2Ykc5bmVTQXlNaUJHWldJZ01qQXhNeTV3WkdZdVkyOXlaV1J2ZDI1c2IyRmtMbkJrWmc9PS0ucGRm-.pdf",
            "file_km": "http://165.22.247.36:8080/storage/49/3hI7bxeZX8JqjvxMKCvDfGjKKPDF92-metaemhMeDFJQjdkYmd1eHR2UmFZemI5NVFDclFmTnRQLW1ldGFSa0ZVUmlCTlpYUm9iMlJ2Ykc5bmVTQXlNaUJHWldJZ01qQXhNeTV3WkdZdVkyOXlaV1J2ZDI1c2IyRmtMbkJrWmc9PS0ucGRm-.pdf",
            "thumbnail_km": "http://165.22.247.36:8080/storage/47/conversions/3QHjpYnLrZ0FvtnRj3kP8YXMCTDG5W-metaU2NyZWVuc2hvdCAyMDIzLTA4LTMwIGF0IDExLjU0LjA4IEFNLnBuZw==--thumb_km.jpg",
            "thumbnail_en": "http://165.22.247.36:8080/storage/48/conversions/EIzyu5y5prk1Fm5Bg5bZGbF7DffA3N-metaU2NyZWVuc2hvdCAyMDIzLTA4LTMwIGF0IDExLjU0LjA4IEFNLnBuZw==--thumb_en.jpg",
            "published_date": "05-10-2023",
            "posted_date": "05-10-2023",
            "category": {
                "code": "007",
                "title_en": "FATF Standards",
                "title_km": "FATF Standards",
                "short_description_km": null,
                "short_description_en": null
            },
            "meta_keyword": null,
            "meta_description": null
        },
        {
            "code": "23-013",
            "title_en": "ការតែងតាំងសមាសភាពក្រុមការងារប្រតិបត្តិកិច្ចការប្រឆាំងការសម្អាតប្រាក់និងហិរញ្ញប្បទានភេរវកម្ម និង ហិរញ្ញប្បទានដល់ការរីសាយភាយអាវុធមហាប្រល័យប្រចាំក្រសួងសេដ្ឋកិច្ចនិង ហិរញ្ញវត្ថុ និងអង្គភាពក្រោមចំណុះ",
            "title_km": "ការតែងតាំងសមាសភាពក្រុមការងារប្រតិបត្តិកិច្ចការប្រឆាំងការសម្អាតប្រាក់និងហិរញ្ញប្បទានភេរវកម្ម និង ហិរញ្ញប្បទានដល់ការរីសាយភាយអាវុធមហាប្រល័យប្រចាំក្រសួងសេដ្ឋកិច្ចនិង ហិរញ្ញវត្ថុ និងអង្គភាពក្រោមចំណុះ",
            "short_description_km": null,
            "short_description_en": null,
            "file_en": "http://165.22.247.36:8080/storage/94/CitcEMza9sUVjvsoDJZMHfpUi1zaWn-metaRGVzaXNpb25fb25fMDlfRGVjXzIwMjIucGRm-.pdf",
            "file_km": "http://165.22.247.36:8080/storage/93/FD2Ky4RqdGz9cjQ8zqoUW92PTbBngO-metaRGVzaXNpb25fb25fMDlfRGVjXzIwMjIucGRm-.pdf",
            "thumbnail_km": "http://165.22.247.36:8080/storage/92/conversions/sK1lQFOuOXLITVHuw8IrslBudexUCI-metaNC5QTkc=--thumb_km.jpg",
            "thumbnail_en": "",
            "published_date": "09-12-2022",
            "posted_date": "09-12-2022",
            "category": {
                "code": "003-01-04",
                "title_en": "Decisions",
                "title_km": "សេចក្តីសម្រេច",
                "short_description_km": null,
                "short_description_en": null
            },
            "meta_keyword": null,
            "meta_description": null
        },
        {
            "code": "23-014",
            "title_en": "ការបង្កើតក្រុមការងារប្រតិបត្តិកិច្ចការប្រឆាំងការសម្អាតប្រាក់និងហិរញ្ញប្បទានដល់ការរីកសាយភាយអាវុធមហាប្រល័យប្រឆាំងក្រសួងសេដ្ឋកិច្ចនិងហិរញ្ញវត្ថុ និងអង្គភាពក្រោមចំណុះ",
            "title_km": "ការបង្កើតក្រុមការងារប្រតិបត្តិកិច្ចការប្រឆាំងការសម្អាតប្រាក់និងហិរញ្ញប្បទានដល់ការរីកសាយភាយអាវុធមហាប្រល័យប្រឆាំងក្រសួងសេដ្ឋកិច្ចនិងហិរញ្ញវត្ថុ និងអង្គភាពក្រោមចំណុះ",
            "short_description_km": null,
            "short_description_en": null,
            "file_en": "http://165.22.247.36:8080/storage/100/abRJ2fIIiX5adkePCL8gh4QoJVjbDh-metaUHJha2FzXzIwMjJfOTEzX01FRl9Nb25leSBMYXVuZGVyaW5nIFdvcmtpbmcgR3JvdXAucGRm-.pdf",
            "file_km": "http://165.22.247.36:8080/storage/99/RKb5g0DLLENCI5sXniKiDmNjip8C08-metaUHJha2FzXzIwMjJfOTEzX01FRl9Nb25leSBMYXVuZGVyaW5nIFdvcmtpbmcgR3JvdXAucGRm-.pdf",
            "thumbnail_km": "http://165.22.247.36:8080/storage/97/conversions/Z5fytOrlKmEKylYVVYLFk5EgWIi7aI-metaNC5wbmc=--thumb_km.jpg",
            "thumbnail_en": "http://165.22.247.36:8080/storage/98/conversions/4nX2cvE74IQQ8ILIjQVrucDoR9DNkT-metaNC5wbmc=--thumb_en.jpg",
            "published_date": "09-12-2022",
            "posted_date": "09-12-2022",
            "category": {
                "code": "003-01-03",
                "title_en": "Praskas",
                "title_km": "ប្រកាស",
                "short_description_km": null,
                "short_description_en": null
            },
            "meta_keyword": null,
            "meta_description": null
        },
        {
            "code": "23-026",
            "title_en": "ការរាយការណ៍អំពីការបង្កកទ្រព្យសម្បត្តិដោយបុគ្គលរាយការណ៍",
            "title_km": "ការរាយការណ៍អំពីការបង្កកទ្រព្យសម្បត្តិដោយបុគ្គលរាយការណ៍",
            "short_description_km": null,
            "short_description_en": null,
            "file_en": "http://165.22.247.36:8080/storage/151/cmlc3KJKZDySSDtMZZduDQCbyBSdua-metaMi4gRGlyZWN0aXZlX29uX0Zyb3plbl9Qcm9wZXJ0eV9SZXBvcnRfYnlfUmVwb3J0aW5nX0VudGl0eV9LSCBfIEVOLnBkZg==-.pdf",
            "file_km": "http://165.22.247.36:8080/storage/150/2d0PC4ESdHJOj1zEoRpcz7njhL47Li-metaMi5EaXJlY3RpdmVfb25fRnJvemVuX1Byb3BlcnR5X1JlcG9ydF9ieV9SZXBvcnRpbmdfRW50aXR5X0tIIF8gRU4ucGRm-.pdf",
            "thumbnail_km": "http://165.22.247.36:8080/storage/148/conversions/3QPWX6QDnAkKE18Kl2fn1ujOOjEbgH-metaRGlyZWN0aXZlIDIuUE5H--thumb_km.jpg",
            "thumbnail_en": "http://165.22.247.36:8080/storage/149/conversions/Rkg1K22W8Jq12bSCBbD6kCwPjLt3AF-metaRGlyZWN0aXZlIGVuIDIuUE5H--thumb_en.jpg",
            "published_date": "21-03-2022",
            "posted_date": "21-03-2022",
            "category": {
                "code": "003-01-05",
                "title_en": "Directives",
                "title_km": "សេចក្តីណែនាំ",
                "short_description_km": null,
                "short_description_en": null
            },
            "meta_keyword": null,
            "meta_description": null
        },
        {
            "code": "23-008",
            "title_en": "ការបង្កើតក្រុមការងារបច្ចេកទេសអន្តរក្រសួងប្រឆាំងនឹងការសម្អាតប្រាក់និងហិរញ្ញប្បទានភេរវកម្ម",
            "title_km": "ការបង្កើតក្រុមការងារបច្ចេកទេសអន្តរក្រសួងប្រឆាំងនឹងការសម្អាតប្រាក់និងហិរញ្ញប្បទានភេរវកម្ម",
            "short_description_km": null,
            "short_description_en": null,
            "file_en": "http://165.22.247.36:8080/storage/74/7Jr34oNX83Jw4zzmwNQpNyS2q8Q118-meta4Z6f4Z+B4Z6F4Z6A4Z+S4Z6K4Z644Z6f4Z6Y4Z+S4Z6a4Z+B4Z6F4Z6U4Z6E4Z+S4Z6A4Z6+4Z6P4Z6A4Z+S4Z6a4Z674Z6YX+GegF_hnpRf4Z6fX+GeoF_hnpvhn4HhnoFf4Z6S4Z+h4Z+i4Z+g4Z+h4Z+n4Z+i4Z+i4Z+kLnBkZg==-.pdf",
            "file_km": "http://165.22.247.36:8080/storage/73/SMwEqG2FDVbXsUDn0B8U5ola9OePnF-meta4Z6f4Z+B4Z6F4Z6A4Z+S4Z6K4Z644Z6f4Z6Y4Z+S4Z6a4Z+B4Z6F4Z6U4Z6E4Z+S4Z6A4Z6+4Z6P4Z6A4Z+S4Z6a4Z674Z6YX+GegF_hnpRf4Z6fX+GeoF_hnpvhn4HhnoFf4Z6S4Z+h4Z+i4Z+g4Z+h4Z+n4Z+i4Z+i4Z+kLnBkZg==-.pdf",
            "thumbnail_km": "http://165.22.247.36:8080/storage/72/conversions/55Zs1xtymovDNT9rEzuNHjXxnbMjqv-metaQ2FwdHVyZS5QTkc=--thumb_km.jpg",
            "thumbnail_en": "",
            "published_date": "22-02-2022",
            "posted_date": "22-02-2022",
            "category": {
                "code": "003-01-04",
                "title_en": "Decisions",
                "title_km": "សេចក្តីសម្រេច",
                "short_description_km": null,
                "short_description_en": null
            },
            "meta_keyword": null,
            "meta_description": null
        },
        {
            "code": "23-007",
            "title_en": "ការបង្កើតក្រុមការងារប្រតិបត្តិកិច្ចការប្រឆាំងការសម្អាតប្រាក់និងហិរញ្ញប្បទានភេរវកម្ម និងហិរញ្ញប្បទានដល់ការរីកសាយភាយអាវុធមហាប្រល័យប្រចាំ អ.ស.ហ",
            "title_km": "ការបង្កើតក្រុមការងារប្រតិបត្តិកិច្ចការប្រឆាំងការសម្អាតប្រាក់និងហិរញ្ញប្បទានភេរវកម្ម និងហិរញ្ញប្បទានដល់ការរីកសាយភាយអាវុធមហាប្រល័យប្រចាំ អ.ស.ហ",
            "short_description_km": null,
            "short_description_en": null,
            "file_en": "http://165.22.247.36:8080/storage/65/HnE22pbCGEo7fhill5o5xTuY6QRuQ4-meta4Z6fX+GemF_hnpThnoThn5LhnoDhnr7hno_hnoDhn5LhnprhnrvhnpjhnoDhnrbhnprhnoThnrbhnpThn5Lhnprhno_hnrfhnpThno_hn5Lhno_hnrdf4Z6iX+Gen1_hnqAucGRm-.pdf",
            "file_km": "http://165.22.247.36:8080/storage/64/vMEpgVdkowPO0Yydn1xlu2D7FBPbYL-meta4Z6fX+GemF_hnpThnoThn5LhnoDhnr7hno_hnoDhn5LhnprhnrvhnpjhnoDhnrbhnprhnoThnrbhnpThn5Lhnprhno_hnrfhnpThno_hn5Lhno_hnrdf4Z6iX+Gen1_hnqAucGRm-.pdf",
            "thumbnail_km": "http://165.22.247.36:8080/storage/63/conversions/T3FIsG4g8wZiwpc3m568sR0cYFR9lX-metaU2NyZWVuc2hvdCAyMDIzLTEwLTA1IGF0IDEuNDAuMTIgUE0ucG5n--thumb_km.jpg",
            "thumbnail_en": "",
            "published_date": "21-02-2022",
            "posted_date": "21-02-2022",
            "category": {
                "code": "003-01-04",
                "title_en": "Decisions",
                "title_km": "សេចក្តីសម្រេច",
                "short_description_km": null,
                "short_description_en": null
            },
            "meta_keyword": null,
            "meta_description": null
        },
        {
            "code": "23-024",
            "title_en": "The Compilation of Directives For Reporting Entities to Implement the Law on Anti-Money Laundering and Combating the Financing of Terrorism",
            "title_km": "កម្រងសេចក្ដីណែនាំសម្រាប់បុគ្គលរាយការណ៍ប្រើប្រាស់ដើម្បីអនុវត្តច្បាប់ស្តីពីការប្រឆាំងការ សម្អាតប្រាក់និងហិរញ្ញប្បទានភេរវកម្ម",
            "short_description_km": null,
            "short_description_en": null,
            "file_en": "http://165.22.247.36:8080/storage/143/k8oFcqBCMOz5K6PrVBWgZJSO4OuuKX-metaMS5Db21waWxhdGlvbk9mRGlyZWN0aXZlc0ZvclJlcG9ydGluZ0VudGl0aWVzVG9JbXBsZW1lbnRUaGVMYXdPbkFNTF9DRlQucGRm-.pdf",
            "file_km": "http://165.22.247.36:8080/storage/142/78v406fISr2ziwXtgy7ZLWfyuaeqsc-metaMS5Db21waWxhdGlvbk9mRGlyZWN0aXZlc0ZvclJlcG9ydGluZ0VudGl0aWVzVG9JbXBsZW1lbnRUaGVMYXdPbkFNTF9DRlQucGRm-.pdf",
            "thumbnail_km": "http://165.22.247.36:8080/storage/140/conversions/7CksutOMKrokYEJhz2cheosme0q2bY-metaRGlyZWN0aXZlIDEuUE5H--thumb_km.jpg",
            "thumbnail_en": "http://165.22.247.36:8080/storage/141/conversions/98WI2fRlnax5kd4NHTCpc1ycTICdnM-metaRGlyZWN0aXZlIGVuIDEuUE5H--thumb_en.jpg",
            "published_date": "11-01-2022",
            "posted_date": "11-01-2022",
            "category": {
                "code": "003-01-05",
                "title_en": "Directives",
                "title_km": "សេចក្តីណែនាំ",
                "short_description_km": null,
                "short_description_en": null
            },
            "meta_keyword": null,
            "meta_description": null
        },
        {
            "code": "23-023",
            "title_en": "Directive On Remittance and Wire Transfer",
            "title_km": "សេចក្ដីណែនាំស្ដីពីការផ្ទេរប្រាក់ និងការផ្ទេរតាមប្រព័ន្ធអេឡិចត្រូនិក",
            "short_description_km": null,
            "short_description_en": null,
            "file_en": "http://165.22.247.36:8080/storage/139/BW0dl33jHY14N20GlKJYkkT8NYDuaA-metaNi4gRGlyZWN0aXZlX09uX1JlbWl0dGFuY2VfYW5kX1dpcmVfVHJhbnNmZXJfRU4ucGRm-.pdf",
            "file_km": "http://165.22.247.36:8080/storage/138/jdHteFMcLrczor8TLlGwhOPC6qSI9I-metaNi5EaXJlY3RpdmVfT25fUmVtaXR0YW5jZV9hbmRfV2lyZV9UcmFuc2Zlcl9LSC5wZGY=-.pdf",
            "thumbnail_km": "http://165.22.247.36:8080/storage/136/conversions/IVFNfeFq1GFY7n8RZEvTvRvofzeIEw-metaNi5wbmc=--thumb_km.jpg",
            "thumbnail_en": "http://165.22.247.36:8080/storage/137/conversions/Kcd0i6FdsQLiIEpb2fhTQuPuiHpC8m-metaNi5wbmc=--thumb_en.jpg",
            "published_date": "11-01-2022",
            "posted_date": "11-01-2022",
            "category": {
                "code": "003-01-05",
                "title_en": "Directives",
                "title_km": "សេចក្តីណែនាំ",
                "short_description_km": null,
                "short_description_en": null
            },
            "meta_keyword": null,
            "meta_description": null
        },
        {
            "code": "23-030",
            "title_en": "Correspondent Banking and Other Similar Relationship",
            "title_km": "ទំនាក់ទំនងធនាគាឆ្លើយឆ្លង និងទំនាក់ទំនងប្រហាក់ប្រហែល",
            "short_description_km": null,
            "short_description_en": null,
            "file_en": "http://165.22.247.36:8080/storage/167/KUErJyO0rq9OfRQVrCFMTPN1pSPUrZ-metaNS4gRGlyZWN0aXZlX09uX0NvcnJlc3BvbmRlbnRfQmFua2luZ19hbmRfT3RoZXJfU2ltaWxhcl9SZWxhdGlvbnNoaXBfRU4ucGRm-.pdf",
            "file_km": "http://165.22.247.36:8080/storage/166/yuSEkrzS6Y680tMQwdyA4yyBAQKcRW-metaNS4gRGlyZWN0aXZlX09uX0NvcnJlc3BvbmRlbnRfQmFua2luZ19hbmRfT3RoZXJfU2ltaWxhcl9SZWxhdGlvbnNoaXBfS0gucGRm-.pdf",
            "thumbnail_km": "http://165.22.247.36:8080/storage/164/conversions/SnQ5jCFLokL0EPmfnHkA146vXTFEHr-metaRGlyZWN0aXZlIDUuUE5H--thumb_km.jpg",
            "thumbnail_en": "http://165.22.247.36:8080/storage/165/conversions/CFxmAMoix6585ED9Vtt7VBuEYlzwW6-metaRGlyZWN0aXZlIGVuIDUuUE5H--thumb_en.jpg",
            "published_date": "11-01-2022",
            "posted_date": "11-01-2022",
            "category": {
                "code": "003-01-05",
                "title_en": "Directives",
                "title_km": "សេចក្តីណែនាំ",
                "short_description_km": null,
                "short_description_en": null
            },
            "meta_keyword": null,
            "meta_description": null
        }
    ],
    "pagination": {
        "count": 10,
        "total": 31,
        "perPage": 10,
        "currentPage": 1,
        "totalPages": 4,
        "links": {
            "next": "/?page=2"
        }
    }
}